Paul Sharkey | Machine Learning in R with Tidymodels
…
There are many clever ways we can choose the set of hyperparameters to tune - here we can just choose an integer and the backend will choose a set automatically.

set.seed(345)
wine_tune <- 
  wine_workflow %>% 
  tune_grid(cell_folds,
            grid = 50,
            control = control_grid(save_pred = TRUE),
            metrics = metric_set(accuracy,recall))

From this object we can extract the metrics we need for each combination of hyperparameters.

wine_tune %>% collect_metrics()

## # A tibble: 98 x 7
##     mtry min_n .metric  .estimator  mean     n std_err
##    <int> <int> <chr>    <chr>      <dbl> <int>   <dbl>
##  1     1    24 accuracy binary     0.753     5 0.00705
##  2     1    24 recall   binary     0.698     5 0.00675
##  3     1    31 accuracy binary     0.747     5 0.00610
##  4     1    31 recall   binary     0.689     5 0.00603
##  5     2     2 accuracy binary     0.81      5 0.0114 
##  6     2     2 recall   binary     0.776     5 0.0186 
##  7     2    15 accuracy binary     0.779     5 0.00801
##  8     2    15 recall   binary     0.752     5 0.0139 
##  9     2    24 accuracy binary     0.775     5 0.00685
## 10     2    24 recall   binary     0.742     5 0.00819
## # … with 88 more rows
…
